\relax 
\providecommand\zref@newlabel[2]{}
\providecommand \oddpage@label [2]{}
\@writefile{toc}{\contentsline {section}{\numberline {1}Sequence diagrams}{1}\protected@file@percent }
\@writefile{toc}{\contentsline {section}{\numberline {2}Verification of transactions}{1}\protected@file@percent }
\@writefile{toc}{\contentsline {subsection}{\numberline {2.1}Blockchain class}{1}\protected@file@percent }
\@writefile{toc}{\contentsline {subsection}{\numberline {2.2}Validator}{1}\protected@file@percent }
\@writefile{toc}{\contentsline {subsection}{\numberline {2.3}Wallet}{1}\protected@file@percent }
\@writefile{toc}{\contentsline {section}{\numberline {3}Signature scheme choice}{1}\protected@file@percent }
\@writefile{toc}{\contentsline {section}{\numberline {4}Fault tolerance}{1}\protected@file@percent }
\@writefile{toc}{\contentsline {section}{\numberline {5}Extra features}{1}\protected@file@percent }
\@writefile{toc}{\contentsline {section}{\numberline {6}Hardware setup}{1}\protected@file@percent }
\@writefile{toc}{\contentsline {subsection}{\numberline {6.1}Pynq boards}{1}\protected@file@percent }
\@writefile{toc}{\contentsline {subsection}{\numberline {6.2}Possibility of hardware acceleration}{1}\protected@file@percent }
\@writefile{toc}{\contentsline {subsection}{\numberline {6.3}Application profiling}{1}\protected@file@percent }
\@writefile{toc}{\contentsline {section}{\numberline {7}License implications}{1}\protected@file@percent }
\@writefile{toc}{\contentsline {subsection}{\numberline {7.1}Cryptopp}{2}\protected@file@percent }
\@writefile{toc}{\contentsline {subsection}{\numberline {7.2}GRPC}{2}\protected@file@percent }
\@writefile{toc}{\contentsline {subsection}{\numberline {7.3}Dilithium-Crystals}{2}\protected@file@percent }
\@writefile{toc}{\contentsline {subsubsection}{\numberline {7.3.1}Common part}{2}\protected@file@percent }
\@writefile{toc}{\contentsline {subsubsection}{\numberline {7.3.2}Scheme-specific part}{2}\protected@file@percent }
\@writefile{toc}{\contentsline {subsection}{\numberline {7.4}Toml}{2}\protected@file@percent }
