\relax 
\providecommand\hyper@newdestlabel[2]{}
\providecommand\HyperFirstAtBeginDocument{\AtBeginDocument}
\HyperFirstAtBeginDocument{\ifx\hyper@anchor\@undefined
\global\let\oldcontentsline\contentsline
\gdef\contentsline#1#2#3#4{\oldcontentsline{#1}{#2}{#3}}
\global\let\oldnewlabel\newlabel
\gdef\newlabel#1#2{\newlabelxx{#1}#2}
\gdef\newlabelxx#1#2#3#4#5#6{\oldnewlabel{#1}{{#2}{#3}}}
\AtEndDocument{\ifx\hyper@anchor\@undefined
\let\contentsline\oldcontentsline
\let\newlabel\oldnewlabel
\fi}
\fi}
\global\let\hyper@last\relax 
\gdef\HyperFirstAtBeginDocument#1{#1}
\providecommand*\HyPL@Entry[1]{}
\@nameuse{bbl@beforestart}
\HyPL@Entry{0<</P(0)>>}
\babel@aux{english}{}
\pgfsyspdfmark {pgfid3}{1376256}{17528007}
\@writefile{nav}{\headcommand {\slideentry {0}{0}{1}{1/1}{}{0}}}
\@writefile{nav}{\headcommand {\beamer@framepages {1}{1}}}
\HyPL@Entry{1<</P(1)>>}
\@writefile{nav}{\headcommand {\slideentry {0}{0}{2}{2/2}{}{0}}}
\@writefile{nav}{\headcommand {\beamer@framepages {2}{2}}}
\pgfsyspdfmark {pgfid8}{0}{0}
\HyPL@Entry{2<</P(2)>>}
\@writefile{toc}{\beamer@sectionintoc {1}{Theme options}{3}{0}{1}}
\@writefile{nav}{\headcommand {\beamer@sectionpages {1}{2}}}
\@writefile{nav}{\headcommand {\beamer@subsectionpages {1}{2}}}
\@writefile{nav}{\headcommand {\sectionentry {1}{Theme options}{3}{Theme options}{0}}}
\@writefile{nav}{\headcommand {\slideentry {1}{0}{1}{3/3}{}{0}}}
\@writefile{nav}{\headcommand {\beamer@framepages {3}{3}}}
\pgfsyspdfmark {pgfid13}{0}{0}
\HyPL@Entry{3<</P(3)>>}
\@writefile{nav}{\headcommand {\slideentry {1}{0}{2}{4/4}{}{0}}}
\@writefile{nav}{\headcommand {\beamer@framepages {4}{4}}}
\pgfsyspdfmark {pgfid14}{0}{0}
\HyPL@Entry{4<</P(4)>>}
\pgfsyspdfmark {pgfid15}{1376256}{5543732}
\@writefile{nav}{\headcommand {\slideentry {1}{0}{3}{5/5}{}{0}}}
\@writefile{nav}{\headcommand {\beamer@framepages {5}{5}}}
\pgfsyspdfmark {pgfid16}{0}{0}
\HyPL@Entry{5<</P(5)>>}
\@writefile{nav}{\headcommand {\slideentry {1}{0}{4}{6/6}{}{0}}}
\@writefile{nav}{\headcommand {\beamer@framepages {6}{6}}}
\pgfsyspdfmark {pgfid17}{0}{0}
\HyPL@Entry{6<</P(6)>>}
\@writefile{toc}{\beamer@sectionintoc {2}{Frames and text}{7}{0}{2}}
\@writefile{nav}{\headcommand {\beamer@sectionpages {3}{6}}}
\@writefile{nav}{\headcommand {\beamer@subsectionpages {3}{6}}}
\@writefile{nav}{\headcommand {\sectionentry {2}{Frames and text}{7}{Frames and text}{0}}}
\@writefile{nav}{\headcommand {\slideentry {2}{0}{1}{7/7}{}{0}}}
\@writefile{nav}{\headcommand {\beamer@framepages {7}{7}}}
\pgfsyspdfmark {pgfid22}{0}{0}
\HyPL@Entry{7<</P(7)>>}
\@writefile{nav}{\headcommand {\slideentry {2}{0}{2}{8/8}{}{0}}}
\@writefile{nav}{\headcommand {\beamer@framepages {8}{8}}}
\pgfsyspdfmark {pgfid23}{0}{0}
\HyPL@Entry{8<</P(8)>>}
\@writefile{nav}{\headcommand {\slideentry {2}{0}{3}{9/9}{}{0}}}
\@writefile{nav}{\headcommand {\beamer@framepages {9}{9}}}
\pgfsyspdfmark {pgfid24}{0}{0}
\HyPL@Entry{9<</P(9)>>}
\@writefile{nav}{\headcommand {\slideentry {2}{0}{4}{10/10}{}{0}}}
\@writefile{nav}{\headcommand {\beamer@framepages {10}{10}}}
\HyPL@Entry{10<</P(10)>>}
\@writefile{nav}{\headcommand {\slideentry {2}{0}{5}{11/11}{}{0}}}
\@writefile{nav}{\headcommand {\beamer@framepages {11}{11}}}
\pgfsyspdfmark {pgfid25}{0}{0}
\HyPL@Entry{11<</P(11)>>}
\@writefile{nav}{\headcommand {\slideentry {2}{0}{6}{12/12}{}{0}}}
\@writefile{nav}{\headcommand {\beamer@framepages {12}{12}}}
\pgfsyspdfmark {pgfid26}{0}{0}
\HyPL@Entry{12<</P(12)>>}
\@writefile{nav}{\headcommand {\slideentry {2}{0}{7}{13/13}{}{0}}}
\@writefile{nav}{\headcommand {\beamer@framepages {13}{13}}}
\pgfsyspdfmark {pgfid27}{0}{0}
\HyPL@Entry{13<</P(13)>>}
\@writefile{nav}{\headcommand {\slideentry {2}{0}{8}{14/14}{}{0}}}
\@writefile{nav}{\headcommand {\beamer@framepages {14}{14}}}
\pgfsyspdfmark {pgfid28}{0}{0}
\HyPL@Entry{14<</P(14)>>}
\@writefile{nav}{\headcommand {\slideentry {2}{0}{9}{15/15}{}{0}}}
\@writefile{nav}{\headcommand {\beamer@framepages {15}{15}}}
\pgfsyspdfmark {pgfid29}{0}{0}
\HyPL@Entry{15<</P(15)>>}
\@writefile{nav}{\headcommand {\slideentry {2}{0}{10}{16/16}{}{0}}}
\@writefile{nav}{\headcommand {\beamer@framepages {16}{16}}}
\pgfsyspdfmark {pgfid30}{0}{0}
\HyPL@Entry{16<</P(16)>>}
\@writefile{nav}{\headcommand {\slideentry {2}{0}{11}{17/17}{}{0}}}
\@writefile{nav}{\headcommand {\beamer@framepages {17}{17}}}
\pgfsyspdfmark {pgfid31}{0}{0}
\HyPL@Entry{17<</P(17)>>}
\newlabel{fig:figure1}{{1}{18}{Frames and text}{Doc-Start}{}}
\@writefile{snm}{\beamer@slide {fig:figure1}{18}}
\@writefile{nav}{\headcommand {\slideentry {2}{0}{12}{18/18}{}{0}}}
\@writefile{nav}{\headcommand {\beamer@framepages {18}{18}}}
\pgfsyspdfmark {pgfid32}{0}{0}
\HyPL@Entry{18<</P(18)>>}
\@writefile{nav}{\headcommand {\slideentry {2}{0}{13}{19/19}{}{0}}}
\@writefile{nav}{\headcommand {\beamer@framepages {19}{19}}}
\pgfsyspdfmark {pgfid33}{0}{0}
\HyPL@Entry{19<</P(19)>>}
\@writefile{nav}{\headcommand {\slideentry {2}{0}{14}{20/20}{}{0}}}
\@writefile{nav}{\headcommand {\beamer@framepages {20}{20}}}
\pgfsyspdfmark {pgfid35}{0}{0}
\HyPL@Entry{20<</P(20)>>}
\@writefile{toc}{\beamer@sectionintoc {3}{Itemization and enumeration}{21}{0}{3}}
\@writefile{nav}{\headcommand {\beamer@sectionpages {7}{20}}}
\@writefile{nav}{\headcommand {\beamer@subsectionpages {7}{20}}}
\@writefile{nav}{\headcommand {\sectionentry {3}{Itemization and enumeration}{21}{Itemization and enumeration}{0}}}
\@writefile{nav}{\headcommand {\slideentry {3}{0}{1}{21/21}{}{0}}}
\@writefile{nav}{\headcommand {\beamer@framepages {21}{21}}}
\pgfsyspdfmark {pgfid40}{0}{0}
\HyPL@Entry{21<</P(21)>>}
\newlabel{sec:items}{{3}{22}{Itemization and enumeration}{Doc-Start}{}}
\@writefile{snm}{\beamer@slide {sec:items}{22}}
\@writefile{nav}{\headcommand {\slideentry {3}{0}{2}{22/22}{}{0}}}
\@writefile{nav}{\headcommand {\beamer@framepages {22}{22}}}
\pgfsyspdfmark {pgfid41}{0}{0}
\HyPL@Entry{22<</P(22)>>}
\@writefile{nav}{\headcommand {\slideentry {3}{0}{3}{23/23}{}{0}}}
\@writefile{nav}{\headcommand {\beamer@framepages {23}{23}}}
\pgfsyspdfmark {pgfid42}{0}{0}
\HyPL@Entry{23<</P(23)>>}
\@writefile{nav}{\headcommand {\slideentry {3}{0}{4}{24/24}{}{0}}}
\@writefile{nav}{\headcommand {\beamer@framepages {24}{24}}}
\pgfsyspdfmark {pgfid43}{0}{0}
\HyPL@Entry{24<</P(24)>>}
\pgfsyspdfmark {pgfid44}{0}{0}
\pgfsyspdfmark {pgfid45}{0}{0}
\@writefile{nav}{\headcommand {\slideentry {3}{0}{5}{25/27}{}{0}}}
\@writefile{nav}{\headcommand {\beamer@framepages {25}{27}}}
\pgfsyspdfmark {pgfid46}{0}{0}
\HyPL@Entry{27<</P(25)>>}
\@writefile{nav}{\headcommand {\slideentry {3}{0}{6}{28/28}{}{0}}}
\@writefile{nav}{\headcommand {\beamer@framepages {28}{28}}}
\pgfsyspdfmark {pgfid47}{0}{0}
\HyPL@Entry{28<</P(26)>>}
\pgfsyspdfmark {pgfid48}{0}{0}
\pgfsyspdfmark {pgfid49}{0}{0}
\pgfsyspdfmark {pgfid50}{0}{0}
\pgfsyspdfmark {pgfid51}{0}{0}
\@writefile{nav}{\headcommand {\slideentry {3}{0}{7}{29/33}{}{0}}}
\@writefile{nav}{\headcommand {\beamer@framepages {29}{33}}}
\pgfsyspdfmark {pgfid52}{0}{0}
\HyPL@Entry{33<</P(27)>>}
\@writefile{nav}{\headcommand {\slideentry {3}{0}{8}{34/34}{}{0}}}
\@writefile{nav}{\headcommand {\beamer@framepages {34}{34}}}
\pgfsyspdfmark {pgfid53}{0}{0}
\HyPL@Entry{34<</P(28)>>}
\@writefile{toc}{\beamer@sectionintoc {4}{Blocks and other environments}{35}{0}{4}}
\@writefile{nav}{\headcommand {\beamer@sectionpages {21}{34}}}
\@writefile{nav}{\headcommand {\beamer@subsectionpages {21}{34}}}
\@writefile{nav}{\headcommand {\sectionentry {4}{Blocks and other environments}{35}{Blocks and other environments}{0}}}
\@writefile{nav}{\headcommand {\slideentry {4}{0}{1}{35/35}{}{0}}}
\@writefile{nav}{\headcommand {\beamer@framepages {35}{35}}}
\pgfsyspdfmark {pgfid58}{0}{0}
\HyPL@Entry{35<</P(29)>>}
\newlabel{sec:blocks}{{4}{36}{Blocks and other environments}{Doc-Start}{}}
\@writefile{snm}{\beamer@slide {sec:blocks}{36}}
\@writefile{nav}{\headcommand {\slideentry {4}{0}{2}{36/36}{}{0}}}
\@writefile{nav}{\headcommand {\beamer@framepages {36}{36}}}
\pgfsyspdfmark {pgfid59}{0}{0}
\HyPL@Entry{36<</P(30)>>}
\@writefile{nav}{\headcommand {\slideentry {4}{0}{3}{37/37}{}{0}}}
\@writefile{nav}{\headcommand {\beamer@framepages {37}{37}}}
\pgfsyspdfmark {pgfid60}{0}{0}
\HyPL@Entry{37<</P(31)>>}
\@writefile{nav}{\headcommand {\slideentry {4}{0}{4}{38/38}{}{0}}}
\@writefile{nav}{\headcommand {\beamer@framepages {38}{38}}}
\pgfsyspdfmark {pgfid61}{0}{0}
\HyPL@Entry{38<</P(32)>>}
\@writefile{nav}{\headcommand {\slideentry {4}{0}{5}{39/39}{}{0}}}
\@writefile{nav}{\headcommand {\beamer@framepages {39}{39}}}
\pgfsyspdfmark {pgfid62}{0}{0}
\HyPL@Entry{39<</P(33)>>}
\@writefile{nav}{\headcommand {\slideentry {4}{0}{6}{40/40}{}{0}}}
\@writefile{nav}{\headcommand {\beamer@framepages {40}{40}}}
\pgfsyspdfmark {pgfid63}{0}{0}
\HyPL@Entry{40<</P(34)>>}
\@writefile{nav}{\headcommand {\slideentry {4}{0}{7}{41/41}{}{0}}}
\@writefile{nav}{\headcommand {\beamer@framepages {41}{41}}}
\pgfsyspdfmark {pgfid64}{0}{0}
\HyPL@Entry{41<</P(35)>>}
\@writefile{nav}{\headcommand {\slideentry {4}{0}{8}{42/42}{}{0}}}
\@writefile{nav}{\headcommand {\beamer@framepages {42}{42}}}
\pgfsyspdfmark {pgfid65}{0}{0}
\HyPL@Entry{42<</P(36)>>}
\newlabel{buttons<1>}{{36}{43}{Blocks and other environments}{Doc-Start}{}}
\@writefile{snm}{\beamer@slide {buttons<1>}{43}}
\newlabel{buttons}{{36}{43}{Blocks and other environments}{Doc-Start}{}}
\@writefile{snm}{\beamer@slide {buttons}{43}}
\@writefile{nav}{\headcommand {\slideentry {4}{0}{9}{43/43}{}{0}}}
\@writefile{nav}{\headcommand {\beamer@framepages {43}{43}}}
\pgfsyspdfmark {pgfid73}{0}{0}
\pgfsyspdfmark {pgfid74}{1376256}{11168840}
\@writefile{nav}{\headcommand {\slideentry {4}{0}{10}{44/44}{}{0}}}
\@writefile{nav}{\headcommand {\beamer@framepages {44}{44}}}
\pgfsyspdfmark {pgfid75}{1376256}{11168840}
\@writefile{nav}{\headcommand {\slideentry {4}{0}{11}{45/45}{}{0}}}
\@writefile{nav}{\headcommand {\beamer@framepages {45}{45}}}
\@writefile{nav}{\headcommand {\gdef \insertmainframenumber {36}}}
\@writefile{nav}{\headcommand {\partentry {Appendix}{1}}}
\@writefile{nav}{\headcommand {\beamer@partpages {1}{45}}}
\@writefile{nav}{\headcommand {\beamer@sectionpages {35}{45}}}
\@writefile{nav}{\headcommand {\beamer@subsectionpages {35}{45}}}
\@writefile{nav}{\headcommand {\beamer@appendixpages {46}}}
\newlabel{extraframe<1>}{{36}{46}{Blocks and other environments}{Doc-Start}{}}
\@writefile{snm}{\beamer@slide {extraframe<1>}{46}}
\newlabel{extraframe}{{36}{46}{Blocks and other environments}{Doc-Start}{}}
\@writefile{snm}{\beamer@slide {extraframe}{46}}
\@writefile{nav}{\headcommand {\slideentry {4}{0}{12}{46/46}{}{1}}}
\@writefile{nav}{\headcommand {\beamer@framepages {46}{46}}}
\pgfsyspdfmark {pgfid78}{0}{0}
\@writefile{nav}{\headcommand {\beamer@partpages {46}{46}}}
\@writefile{nav}{\headcommand {\beamer@subsectionpages {46}{46}}}
\@writefile{nav}{\headcommand {\beamer@sectionpages {46}{46}}}
\@writefile{nav}{\headcommand {\beamer@documentpages {46}}}
\@writefile{nav}{\headcommand {\gdef \inserttotalframenumber {36}}}
